[{
  "model": "users.user",
  "pk": 1,
  "fields": {
    "password": "pbkdf2_sha256$180000$mjjx6ocBXvvY$Kmzx2XFGjNWwwz7F6zr5lKctHXh4yRfXAot/Djh4mg8=",
    "last_login": "2020-02-19T13:18:41.127Z",
    "is_superuser": true,
    "username": "admin",
    "first_name": "Admin",
    "last_name": "User",
    "email": "",
    "is_staff": true,
    "is_active": true,
    "date_joined": "2020-02-19T11:07:51.585Z",
    "street": "Main Street",
    "post_code": "1234",
    "groups": [],
    "user_permissions": []
  }
}, {
  "model": "users.user",
  "pk": 2,
  "fields": {
    "password": "pbkdf2_sha256$180000$xRk6AQbWL5Pe$kFufAF0F2IMredG5EhtiYZWeyTwUclir9sc3Jp/tIiE=",
    "last_login": "2020-02-19T13:23:20.777Z",
    "is_superuser": false,
    "username": "John",
    "first_name": "John",
    "last_name": "Doe",
    "email": "",
    "is_staff": false,
    "is_active": true,
    "date_joined": "2020-02-19T13:22:37.608Z",
    "street": "Long Street",
    "post_code": "4321",
    "groups": [],
    "user_permissions": []
  }
}]